module semgrep-enhance-rules

go 1.21.7

require (
	github.com/xanzy/go-gitlab v0.97.0
	gopkg.in/yaml.v3 v3.0.1
)

require (
	github.com/mattn/go-colorable v0.1.13 // indirect
	github.com/mattn/go-isatty v0.0.20 // indirect
	golang.org/x/sys v0.14.0 // indirect
)

require (
	github.com/adrg/strutil v0.3.1
	github.com/fatih/color v1.16.0
	github.com/golang/protobuf v1.5.3 // indirect
	github.com/google/go-querystring v1.1.0 // indirect
	github.com/hashicorp/go-cleanhttp v0.5.2 // indirect
	github.com/hashicorp/go-retryablehttp v0.7.2 // indirect
	golang.org/x/net v0.8.0 // indirect
	golang.org/x/oauth2 v0.6.0 // indirect
	golang.org/x/time v0.3.0 // indirect
	google.golang.org/appengine v1.6.7 // indirect
	google.golang.org/protobuf v1.29.1 // indirect
)
